#define desk_width 16
#define desk_height 16
static char desk_bits[] = {
  0xFF, 0xFF, 0xFF, 0xFF, 0xDF, 0xFF, 0x8F, 0xFF, 0x07, 0xFF, 0x03, 0xF0, 
  0x07, 0xF0, 0x0F, 0xF8, 0x1F, 0xFC, 0x1F, 0xFC, 0x1F, 0xFB, 0x9F, 0xF7, 
  0xFF, 0xEF, 0xFF, 0xDF, 0xFF, 0xFF, 0xFF, 0xFF, };
