#define max_width 16
#define max_height 16
static char max_bits[] = {
  0xE0, 0x07, 0xF8, 0x1F, 0xFC, 0x3F, 0xFE, 0x7F, 0xFE, 0x7F, 0x1F, 0xF8, 
  0xDF, 0xFB, 0xDF, 0xFB, 0xDF, 0xFB, 0xDF, 0xFB, 0x1F, 0xF8, 0xFE, 0x7F, 
  0xFE, 0x7F, 0xFC, 0x3F, 0xF8, 0x1F, 0xE0, 0x07, };
